{
    "$schema": "https://themost-framework.github.io/themost/models/2018/2/schema.json",
    "@id": "http://schema.org/Audience",
    "name": "Audience",
    "description": "Intended audience for an item, i.e. the group for whom the item was created.",
    "title": "Audience",
    "abstract": false,
    "sealed": false,
    "implements": "Intangible",
    "version": "1.0",
    "fields": [
        {
            "@id": "http://schema.org/audienceType",
            "name": "audienceType",
            "title": "audienceType",
            "description": "The target group associated with a given audience (e.g. veterans, car owners, musicians, etc.).",
            "type": "Text"
        }
    ],
    "privileges": [
        {
            "mask": 15,
            "type": "global"
        },
        {
            "mask": 15,
            "type": "global",
            "account": "Administrators"
        }
    ]
}
