{
    "$schema": "https://themost-framework.github.io/themost/models/2018/2/schema.json",
    "@id": "http://schema.org/ContactPoint",
    "name": "ContactPoint",
    "description": "A contact point&#x2014;for example, a Customer Complaints department.",
    "title": "ContactPoint",
    "abstract": false,
    "sealed": false,
    "implements": "StructuredValue",
    "hidden": true,
    "version": "1.0",
    "fields": [
        {
            "@id": "http://schema.org/availableLanguage",
            "name": "availableLanguage",
            "title": "availableLanguage",
            "description": "A language someone may use with or at the item, service or place. Please use one of the language codes from the <a href=\"http://tools.ietf.org/html/bcp47\">IETF BCP 47 standard</a>. See also <a class=\"localLink\" href=\"http://schema.org/inLanguage\">inLanguage</a>",
            "type": "Text"
        },
        {
            "@id": "http://schema.org/telephone",
            "name": "telephone",
            "title": "telephone",
            "description": "The telephone number.",
            "type": "Text"
        },
        {
            "@id": "http://schema.org/email",
            "name": "email",
            "title": "email",
            "description": "Email address.",
            "type": "Text"
        },
        {
            "@id": "http://schema.org/contactType",
            "name": "contactType",
            "title": "contactType",
            "description": "A person or organization can have different contact points, for different purposes. For example, a sales contact point, a PR contact point and so on. This property is used to specify the kind of contact point.",
            "type": "Text"
        },
        {
            "@id": "http://schema.org/faxNumber",
            "name": "faxNumber",
            "title": "faxNumber",
            "description": "The fax number.",
            "type": "Text"
        }
    ],
    "privileges": [
        {
            "mask": 15,
            "type": "global"
        },
        {
            "mask": 15,
            "type": "global",
            "account": "Administrators"
        }
    ]
}
